<svg width="304" height="260" viewBox="0 0 304 260" fill="none" xmlns="http://www.w3.org/2000/svg">
<path d="M173.332 0V130H259.998C259.998 177.787 221.119 216.666 173.332 216.666V260C245.018 260 303.332 201.686 303.332 130V0H173.332Z" fill="#056496" fill-opacity="0.1"/>
<path d="M0 130H86.6664C86.6664 177.787 47.7869 216.666 0 216.666V260C71.6863 260 130 201.686 130 130V0H0V130Z" fill="#056496" fill-opacity="0.1"/>
</svg>
